504488 668805 509
420747 168158 449
671546 511048 509
46785 749646 509
350519 603199 470
858255 419642 525
571461 807577 509
430742 289565 449
716998 810259 468
712618 388738 509
479466 318477 449
729219 499058 509
133656 967104 525
389194 728646 509
733733 901503 525
12859 939348 525
178392 578133 470
45969 923539 525
783965 593692 509
621686 363616 470
715925 809240 468
699901 25043 509
111914 300928 443
487698 893506 525
390016 695486 509
853879 821158 525
355924 88872 443
750749 282112 509
147398 659084 509
168970 248861 443
259657 681126 509
475543 811217 509
133459 722888 509
701923 315600 509
412151 974927 525
989336 76523 525
909840 534741 525
111441 87849 354
675987 912526 525
854505 330465 525
583314 439991 470
226205 36170 386
906565 305659 525
145567 285200 443
556480 719440 509
642234 779545 504
134387 896018 525
510018 654121 509
423578 48473 449
914028 900893 476
549591 544703 452
68379 98017 351
91334 760605 509
728470 463692 509
940829 421306 525
915819 684551 525
819100 428383 509
873313 541213 525
351994 768145 509
981882 116714 525
237124 956213 525
27650 33239 285
464746 232553 449
104621 616747 470
45929 112174 354
579303 158421 470
323289 516253 470
986396 1731 525
358353 312788 441
869230 778876 525
623400 231632 470
988410 186676 525
905571 145941 525
571052 333709 470
789526 155742 509
683318 922053 525
714985 294864 509
917193 536866 525
502678 151843 449
715852 82084 509
112553 257618 443
496781 797223 509
220216 183741 386
743040 920403 525
728831 718698 411
591449 4793 470
196079 26038 383
555842 733053 509
611514 785714 509
758213 307869 509
676845 553351 509
765388 979948 525
17235 334533 443
974251 30160 525
958283 22947 525
905507 389649 525
939754 104620 525
851500 252195 525
959491 995441 458
370352 806982 509
372326 453772 449
345742 729390 509
553661 269029 470
693171 339732 509
779531 671408 504
656573 279266 509
321112 348226 441
109752 23017 354
372287 682646 509
195516 423134 449
658125 462072 509
452380 126739 449
959264 828074 525
508637 480928 426
7443 963930 525
946034 128055 525
33886 818893 509
281108 643284 509
475034 190727 449
505459 464780 426
317603 712035 509
329863 85897 443
248892 886634 525
652275 631900 416
999503 68164 525
119277 880950 525
476433 959641 525
326970 198678 443
521486 334286 470
179053 434554 449
357595 835728 509
960979 412220 525
366944 931089 525
567335 140957 470
897718 375626 525
490274 804977 509
441669 587260 470
30646 369948 443
686462 714870 504
434837 915840 525
861884 709118 525
803104 652569 504
754711 107224 509
767740 407497 509
531329 947212 525
184713 788546 509
24925 829597 509
977019 675644 525
422440 916312 525
107598 304538 443
316686 914850 525
396911 266658 441
315981 544424 470
851123 14246 525
46767 201639 383
626119 608238 447
764575 798870 468
683146 628224 442
669704 726475 504
106282 228873 386
873830 676469 525
565425 661044 509
926229 623127 525
738086 282229 509
273046 369107 441
853518 221694 525
3815 526602 470
128880 398403 443
838176 406617 525
499778 111783 449
445898 9402 449
459314 594078 470
966492 867495 507
312841 529961 470
874155 144523 525
992701 836231 525
378134 579114 470
260772 490550 449
441460 904120 525
76555 8495 340
731010 850969 525
60270 185416 383
536943 584274 452
377688 276043 441
981458 617857 525
706509 80803 509
637569 229001 509
665072 878060 525
429505 392690 449
934480 403777 525
104675 170339 383
670030 835799 504
357332 289451 441
218008 529821 470
739578 895373 525
811919 222474 509
498574 299299 449
995703 8652 525
15096 406219 443
493356 236078 449
478060 205228 449
850203 241596 525
160690 595812 470
170541 236976 443
584081 807356 509
464755 44264 449
610448 933881 525
460267 199057 449
251533 111010 443
919060 120947 525
597733 271356 470
818337 720034 468
280485 845786 525
273217 829292 509
968980 591770 525
908802 268017 525
332876 535268 470
587381 169281 470
268852 243413 407
529843 614834 452
863742 874341 432
382806 821308 509
470074 243383 449
179083 540218 470
62370 996972 525
923883 7253 525
216767 7373 386
59506 44852 340
27134 872052 525
582478 928391 525
447345 841141 525
112380 621324 470
305757 55714 443
809560 733459 468
987879 602651 525
383601 408309 436
124316 632539 509
844141 697029 525
519334 482365 470
672220 809937 504
874535 583173 525
848594 536469 525
496280 631743 509
991745 502691 525
963612 690035 525
696388 511801 509
179540 708265 509
398985 220747 443
861507 458918 525
559793 170596 470
